# Blender v2.67 (sub 0) OBJ File: ''
# www.blender.org
mtllib cyl_wall.mtl
o Cylinder_Cylinder.001
v 0.000000 -1.000002 -5.759904
v 0.000000 -1.000000 -0.000944
v -0.156434 -0.987690 -5.758905
v 0.000000 -0.999994 17.275936
v 0.000000 -0.999992 23.034895
v -0.156434 -0.987682 17.276932
v -0.156434 -0.987688 0.000054
v -0.309017 -0.951057 0.000054
v -0.156434 -0.987680 23.035892
v -0.309017 -0.951049 23.035892
v -0.309017 -0.951059 -5.758905
v -0.453991 -0.891009 -5.758905
v -0.309017 -0.951051 17.276932
v -0.453991 -0.890999 23.035892
v -0.453991 -0.891007 0.000054
v -0.587785 -0.809017 0.000054
v -0.453991 -0.891001 17.276932
v -0.587785 -0.809009 23.035892
v -0.587785 -0.809019 -5.758905
v -0.707107 -0.707107 0.000054
v -0.587785 -0.809011 17.276932
v -0.707107 -0.707101 17.276932
v -0.707107 -0.707109 -5.758905
v -0.809017 -0.587785 0.000054
v -0.707107 -0.707099 23.035892
v -0.809017 -0.587777 23.035892
v -0.809017 -0.587787 -5.758905
v -0.891007 -0.453991 0.000054
v -0.809017 -0.587779 17.276932
v -0.891007 -0.453983 23.035892
v -0.891007 -0.453993 -5.758905
v -0.951057 -0.309019 -5.758905
v -0.891007 -0.453985 17.276932
v -0.951057 -0.309009 23.035892
v -0.951057 -0.309017 0.000054
v -0.987688 -0.156436 -5.758905
v -0.951057 -0.309011 17.276932
v -0.987688 -0.156426 23.035892
v -0.987688 -0.156434 0.000054
v -1.000000 0.000000 0.000054
v -0.987688 -0.156428 17.276932
v -1.000000 0.000006 17.276932
v -1.000000 -0.000002 -5.758905
v -0.987688 0.156435 0.000054
v -1.000000 0.000008 23.035892
v -0.987688 0.156443 23.035892
v -0.987688 0.156433 -5.758905
v -0.951056 0.309017 0.000054
v -0.987688 0.156441 17.276932
v -0.951056 0.309023 17.276932
v -0.951056 0.309015 -5.758905
v -0.891006 0.453991 0.000054
v -0.951056 0.309025 23.035892
v -0.891006 0.453999 23.035892
v -0.891006 0.453989 -5.758905
v -0.809017 0.587786 0.000054
v -0.891006 0.453997 17.276932
v -0.809017 0.587792 17.276932
v -0.809017 0.587784 -5.758905
v -0.707106 0.707105 -5.758905
v -0.809017 0.587794 23.035892
v -0.707106 0.707113 17.276932
v -0.707106 0.707107 0.000054
v -0.587785 0.809017 0.000054
v -0.707106 0.707115 23.035892
v -0.587785 0.809023 17.276932
v -0.587785 0.809015 -5.758905
v -0.453990 0.891005 -5.758905
v -0.587785 0.809025 23.035892
v -0.453990 0.891013 17.276932
v -0.453990 0.891007 0.000054
v -0.309016 0.951057 0.000054
v -0.453990 0.891015 23.035892
v -0.309016 0.951065 23.035892
v -0.309016 0.951055 -5.758905
v -0.156434 0.987688 0.000054
v -0.309016 0.951063 17.276932
v -0.156434 0.987696 23.035892
v -0.156434 0.987686 -5.758905
v 0.000001 0.999998 -5.758905
v -0.156434 0.987694 17.276932
v 0.000001 1.000006 17.276932
v 0.000001 1.000000 0.000054
v 0.156435 0.987686 -5.758905
v 0.000001 1.000008 23.035892
v 0.156435 0.987696 23.035892
v 0.156435 0.987688 0.000054
v 0.309018 0.951056 0.000054
v 0.156435 0.987694 17.276932
v 0.309018 0.951062 17.276932
v 0.309018 0.951054 -5.758905
v 0.453991 0.891006 0.000054
v 0.309018 0.951064 23.035892
v 0.453991 0.891014 23.035892
v 0.453991 0.891004 -5.758905
v 0.587786 0.809014 -5.758905
v 0.453991 0.891012 17.276932
v 0.587786 0.809024 23.035892
v 0.587786 0.809016 0.000054
v 0.707108 0.707106 0.000054
v 0.587786 0.809022 17.276932
v 0.707108 0.707114 23.035892
v 0.707108 0.707104 -5.758905
v 0.809018 0.587784 0.000054
v 0.707108 0.707112 17.276932
v 0.809018 0.587790 17.276932
v 0.809018 0.587782 -5.758905
v 0.891007 0.453987 -5.758905
v 0.809018 0.587792 23.035892
v 0.891007 0.453997 23.035892
v 0.891007 0.453989 0.000054
v 0.951057 0.309016 0.000054
v 0.891007 0.453995 17.276932
v 0.951057 0.309024 23.035892
v 0.951057 0.309014 -5.758905
v 0.987689 0.156433 0.000054
v 0.951057 0.309022 17.276932
v 0.987689 0.156441 23.035892
v 0.987689 0.156431 -5.758905
v 1.000000 -0.000001 0.000054
v 0.987689 0.156439 17.276932
v 1.000000 0.000005 17.276932
v 1.000000 -0.000003 -5.758905
v 0.987688 -0.156436 0.000054
v 1.000000 0.000007 23.035892
v 0.987688 -0.156428 23.035892
v 0.987688 -0.156438 -5.758905
v 0.951056 -0.309018 0.000054
v 0.987688 -0.156430 17.276932
v 0.951056 -0.309010 23.035892
v 0.951056 -0.309020 -5.758905
v 0.891006 -0.453994 -5.758905
v 0.951056 -0.309012 17.276932
v 0.891006 -0.453986 17.276932
v 0.891006 -0.453992 0.000054
v 0.809016 -0.587789 -5.758905
v 0.891006 -0.453984 23.035892
v 0.809016 -0.587779 23.035892
v 0.809016 -0.587787 0.000054
v 0.707106 -0.707110 -5.758905
v 0.809016 -0.587781 17.276932
v 0.707106 -0.707102 17.276932
v 0.707106 -0.707108 0.000054
v 0.587784 -0.809020 -5.758905
v 0.707106 -0.707100 23.035892
v 0.587784 -0.809010 23.035892
v 0.587784 -0.809018 0.000054
v 0.453989 -0.891009 -5.758905
v 0.587784 -0.809012 17.276932
v 0.453989 -0.891001 17.276932
v 0.453989 -0.891007 0.000054
v 0.309015 -0.951057 0.000054
v 0.453989 -0.890999 23.035892
v 0.309015 -0.951051 17.276932
v 0.156432 -0.987691 -5.758905
v 0.156432 -0.987689 0.000054
v 0.156432 -0.987683 17.276932
v 0.156432 -0.987681 23.035892
v 0.309015 -0.951059 -5.758905
v 0.309015 -0.951049 23.035892
v 0.000000 -0.999998 5.758016
v 0.000000 -0.999996 11.516975
v -0.156434 -0.987686 5.759014
v -0.156434 -0.987684 11.517973
v -0.309017 -0.951053 11.517973
v -0.309017 -0.951055 5.759014
v -0.453991 -0.891005 5.759014
v -0.453991 -0.891003 11.517973
v -0.587785 -0.809015 5.759014
v -0.707107 -0.707105 5.759014
v -0.587785 -0.809013 11.517973
v -0.707107 -0.707103 11.517973
v -0.809017 -0.587783 5.759014
v -0.809017 -0.587781 11.517973
v -0.891007 -0.453989 5.759014
v -0.891007 -0.453987 11.517973
v -0.951057 -0.309015 5.759014
v -0.951057 -0.309013 11.517973
v -0.987688 -0.156430 11.517973
v -0.987688 -0.156432 5.759014
v -1.000000 0.000002 5.759014
v -1.000000 0.000004 11.517973
v -0.987688 0.156437 5.759014
v -0.951056 0.309019 5.759014
v -0.987688 0.156439 11.517973
v -0.951056 0.309021 11.517973
v -0.891006 0.453993 5.759014
v -0.809017 0.587788 5.759014
v -0.891006 0.453995 11.517973
v -0.809017 0.587790 11.517973
v -0.707106 0.707109 5.759014
v -0.707106 0.707111 11.517973
v -0.587785 0.809019 5.759014
v -0.587785 0.809021 11.517973
v -0.453990 0.891011 11.517973
v -0.453990 0.891009 5.759014
v -0.309016 0.951059 5.759014
v -0.309016 0.951061 11.517973
v -0.156434 0.987692 11.517973
v -0.156434 0.987690 5.759014
v 0.000001 1.000002 5.759014
v 0.000001 1.000004 11.517973
v 0.156435 0.987690 5.759014
v 0.156435 0.987692 11.517973
v 0.309018 0.951058 5.759014
v 0.453991 0.891008 5.759014
v 0.309018 0.951060 11.517973
v 0.453991 0.891010 11.517973
v 0.587786 0.809018 5.759014
v 0.587786 0.809020 11.517973
v 0.707108 0.707110 11.517973
v 0.707108 0.707108 5.759014
v 0.809018 0.587786 5.759014
v 0.809018 0.587788 11.517973
v 0.891007 0.453991 5.759014
v 0.891007 0.453993 11.517973
v 0.951057 0.309020 11.517973
v 0.951057 0.309018 5.759014
v 0.987689 0.156435 5.759014
v 0.987689 0.156437 11.517973
v 1.000000 0.000003 11.517973
v 1.000000 0.000001 5.759014
v 0.987688 -0.156434 5.759014
v 0.987688 -0.156432 11.517973
v 0.951056 -0.309016 5.759014
v 0.951056 -0.309014 11.517973
v 0.891006 -0.453990 5.759014
v 0.809016 -0.587785 5.759014
v 0.891006 -0.453988 11.517973
v 0.809016 -0.587783 11.517973
v 0.707106 -0.707106 5.759014
v 0.707106 -0.707104 11.517973
v 0.587784 -0.809016 5.759014
v 0.587784 -0.809014 11.517973
v 0.453989 -0.891005 5.759014
v 0.453989 -0.891003 11.517973
v 0.309015 -0.951053 11.517973
v 0.156432 -0.987687 5.759014
v 0.156432 -0.987685 11.517973
v 0.309015 -0.951055 5.759014
v -0.707106 0.707103 -11.517865
v -0.587785 0.809013 -11.517865
v 0.707108 0.707098 -23.035784
v 0.707108 0.707100 -17.276825
v 0.809018 0.587778 -17.276825
v 0.891007 0.453981 -23.035784
v 0.891007 0.453983 -17.276825
v 0.951057 0.309010 -17.276825
v 0.891006 -0.453998 -17.276825
v 0.891006 -0.453996 -11.517865
v 0.809016 -0.587793 -17.276825
v 0.156432 -0.987695 -17.276825
v 0.156432 -0.987693 -11.517865
v 0.000000 -1.000004 -11.518864
v 0.809016 -0.587791 -11.517865
v 0.987689 0.156427 -17.276825
v 0.987689 0.156429 -11.517865
v 1.000000 -0.000005 -11.517865
v 0.453991 0.890998 -23.035784
v 0.453991 0.891000 -17.276825
v 0.587786 0.809010 -17.276825
v -0.891006 0.453985 -17.276825
v -0.891006 0.453987 -11.517865
v -0.809017 0.587782 -11.517865
v -0.453990 0.891003 -11.517865
v -0.309016 0.951053 -11.517865
v -0.987688 0.156429 -17.276825
v -0.987688 0.156431 -11.517865
v -0.951056 0.309013 -11.517865
v -0.809017 -0.587793 -23.035784
v -0.809017 -0.587791 -17.276825
v -0.891007 -0.453997 -17.276825
v -0.309017 -0.951065 -23.035784
v -0.309017 -0.951063 -17.276825
v -0.453991 -0.891013 -17.276825
v 0.000000 -1.000008 -23.036783
v 0.000000 -1.000006 -17.277824
v -0.156434 -0.987696 -23.035784
v -0.987688 -0.156440 -17.276825
v -1.000000 -0.000006 -17.276825
v -1.000000 -0.000008 -23.035784
v 0.587784 -0.809022 -11.517865
v 0.987688 -0.156440 -11.517865
v 0.707108 0.707102 -11.517865
v 0.951056 -0.309022 -11.517865
v -0.156434 0.987680 -23.035784
v -0.156434 0.987682 -17.276825
v 0.000001 0.999992 -23.035784
v -0.891007 -0.453995 -11.517865
v -0.951057 -0.309023 -17.276825
v 0.156435 0.987680 -23.035784
v 0.156435 0.987682 -17.276825
v 0.309018 0.951050 -17.276825
v -0.309017 -0.951061 -11.517865
v -0.453991 -0.891011 -11.517865
v -0.453990 0.891001 -17.276825
v -0.987688 -0.156438 -11.517865
v 0.156432 -0.987697 -23.035784
v 0.891006 -0.454000 -23.035784
v 0.809016 -0.587795 -23.035784
v 0.809018 0.587780 -11.517865
v 0.891007 0.453985 -11.517865
v 0.156435 0.987684 -11.517865
v 0.309018 0.951052 -11.517865
v -0.707106 0.707099 -23.035784
v -0.707106 0.707101 -17.276825
v -0.587785 0.809011 -17.276825
v -0.587785 -0.809021 -11.517865
v 0.951057 0.309012 -11.517865
v 0.707106 -0.707114 -17.276825
v 0.987689 0.156425 -23.035784
v 1.000000 -0.000009 -23.035784
v -0.453990 0.890999 -23.035784
v -0.309016 0.951051 -17.276825
v -0.987688 0.156427 -23.035784
v -0.951056 0.309009 -23.035784
v -0.707107 -0.707113 -17.276825
v -0.707107 -0.707111 -11.517865
v -0.809017 -0.587789 -11.517865
v 0.587784 -0.809024 -17.276825
v 0.453989 -0.891013 -17.276825
v 1.000000 -0.000007 -17.276825
v 0.587784 -0.809026 -23.035784
v 0.453989 -0.891015 -23.035784
v 0.587786 0.809012 -11.517865
v -0.156434 0.987684 -11.517865
v -0.891006 0.453983 -23.035784
v -0.809017 0.587778 -23.035784
v -0.891007 -0.453999 -23.035784
v -0.951057 -0.309025 -23.035784
v -0.156434 -0.987692 -11.517865
v 0.453989 -0.891011 -11.517865
v 0.309015 -0.951061 -11.517865
v 0.951056 -0.309024 -17.276825
v -0.156434 -0.987694 -17.276825
v 0.000001 0.999996 -11.517865
v -0.987688 -0.156442 -23.035784
v -0.587785 -0.809023 -17.276825
v 0.951056 -0.309026 -23.035784
v 0.000001 0.999994 -17.276825
v -0.951057 -0.309021 -11.517865
v -1.000000 -0.000004 -11.517865
v -0.707107 -0.707115 -23.035784
v 0.707106 -0.707112 -11.517865
v 0.309015 -0.951063 -17.276825
v 0.987688 -0.156444 -23.035784
v 0.587786 0.809008 -23.035784
v 0.951057 0.309008 -23.035784
v -0.951056 0.309011 -17.276825
v 0.809018 0.587776 -23.035784
v -0.809017 0.587780 -17.276825
v -0.453991 -0.891015 -23.035784
v -0.587785 -0.809025 -23.035784
v 0.309015 -0.951065 -23.035784
v 0.453991 0.891002 -11.517865
v 0.309018 0.951048 -23.035784
v -0.587785 0.809009 -23.035784
v 0.707106 -0.707116 -23.035784
v 0.987688 -0.156442 -17.276825
v -0.309016 0.951049 -23.035784
usemtl None.001
s off
f 1 2 3
f 4 5 6
f 3 7 8
f 6 9 10
f 11 8 12
f 13 10 14
f 12 15 16
f 17 14 18
f 19 16 20
f 21 18 22
f 23 20 24
f 22 25 26
f 27 24 28
f 29 26 30
f 31 28 32
f 33 30 34
f 32 35 36
f 37 34 38
f 36 39 40
f 41 38 42
f 43 40 44
f 42 45 46
f 47 44 48
f 49 46 50
f 51 48 52
f 50 53 54
f 55 52 56
f 57 54 58
f 59 56 60
f 58 61 62
f 60 63 64
f 62 65 66
f 67 64 68
f 66 69 70
f 68 71 72
f 70 73 74
f 75 72 76
f 77 74 78
f 79 76 80
f 81 78 82
f 80 83 84
f 82 85 86
f 84 87 88
f 89 86 90
f 91 88 92
f 90 93 94
f 95 92 96
f 97 94 98
f 96 99 100
f 101 98 102
f 103 100 104
f 105 102 106
f 107 104 108
f 106 109 110
f 108 111 112
f 113 110 114
f 115 112 116
f 117 114 118
f 119 116 120
f 121 118 122
f 123 120 124
f 122 125 126
f 127 124 128
f 129 126 130
f 131 128 132
f 133 130 134
f 132 135 136
f 134 137 138
f 136 139 140
f 141 138 142
f 140 143 144
f 142 145 146
f 144 147 148
f 149 146 150
f 148 151 152
f 150 153 154
f 155 156 2
f 157 158 5
f 159 152 156
f 154 160 158
f 2 161 7
f 161 162 163
f 162 4 164
f 7 163 8
f 163 164 165
f 164 6 165
f 8 166 15
f 166 165 167
f 165 13 168
f 15 167 169
f 167 168 169
f 168 17 21
f 16 169 170
f 169 171 170
f 171 21 172
f 20 170 173
f 170 172 174
f 172 22 174
f 24 173 175
f 173 174 175
f 174 29 176
f 28 175 177
f 175 176 178
f 176 33 178
f 35 177 39
f 177 178 179
f 178 37 41
f 39 180 181
f 180 179 182
f 179 41 182
f 40 181 183
f 181 182 183
f 182 42 49
f 44 183 184
f 183 185 186
f 185 49 186
f 48 184 52
f 184 186 187
f 186 50 57
f 52 187 188
f 187 189 190
f 189 57 58
f 56 188 191
f 188 190 191
f 190 58 192
f 63 191 193
f 191 192 194
f 192 62 66
f 64 193 71
f 193 194 195
f 194 66 195
f 71 196 197
f 196 195 198
f 195 70 198
f 72 197 76
f 197 198 199
f 198 77 81
f 76 200 201
f 200 199 202
f 199 81 202
f 83 201 203
f 201 202 204
f 202 82 89
f 87 203 205
f 203 204 205
f 204 89 90
f 88 205 206
f 205 207 208
f 207 90 97
f 92 206 209
f 206 208 210
f 208 97 101
f 99 209 100
f 209 210 211
f 210 101 105
f 100 212 213
f 212 211 214
f 211 105 106
f 104 213 215
f 213 214 216
f 214 106 113
f 111 215 112
f 215 216 217
f 216 113 217
f 112 218 219
f 218 217 220
f 217 117 121
f 116 219 120
f 219 220 221
f 220 121 122
f 120 222 223
f 222 221 223
f 221 122 224
f 124 223 225
f 223 224 225
f 224 129 226
f 128 225 227
f 225 226 227
f 226 133 134
f 135 227 228
f 227 229 230
f 229 134 230
f 139 228 231
f 228 230 232
f 230 141 142
f 143 231 147
f 231 232 233
f 232 142 234
f 147 233 235
f 233 234 235
f 234 149 236
f 151 235 152
f 235 236 237
f 236 150 154
f 156 238 161
f 238 239 162
f 239 157 4
f 152 240 238
f 240 237 239
f 237 154 157
f 241 60 242
f 243 244 245
f 246 247 248
f 185 182 49
f 249 250 251
f 91 84 88
f 252 253 254
f 105 101 102
f 255 136 140
f 256 257 258
f 259 260 261
f 262 263 264
f 265 68 266
f 267 268 269
f 270 271 272
f 273 274 275
f 276 277 278
f 279 280 281
f 95 91 92
f 189 186 57
f 282 144 148
f 258 123 283
f 244 284 245
f 285 131 132
f 286 287 288
f 263 55 264
f 272 289 290
f 291 292 293
f 274 294 295
f 242 265 296
f 208 207 97
f 279 297 280
f 298 252 277
f 299 249 300
f 301 107 302
f 188 187 190
f 292 303 304
f 305 306 307
f 297 36 43
f 212 209 211
f 295 12 308
f 163 166 8
f 69 73 70
f 309 115 119
f 224 226 225
f 251 255 310
f 311 256 312
f 313 296 314
f 304 91 95
f 296 265 314
f 315 267 316
f 317 318 319
f 318 23 27
f 142 149 234
f 11 3 8
f 46 53 50
f 129 122 126
f 320 282 321
f 322 258 283
f 323 320 324
f 325 96 284
f 266 75 326
f 327 262 328
f 261 325 284
f 329 272 330
f 331 3 11
f 307 296 313
f 269 51 55
f 168 171 169
f 332 148 333
f 334 285 249
f 335 331 294
f 245 301 302
f 336 80 303
f 264 59 241
f 204 202 89
f 337 279 281
f 275 295 338
f 265 266 314
f 339 334 249
f 210 208 101
f 333 159 155
f 300 251 310
f 340 336 303
f 248 309 257
f 293 304 260
f 242 67 68
f 341 32 36
f 342 43 47
f 343 317 271
f 165 168 167
f 289 341 290
f 174 176 175
f 138 145 142
f 344 140 144
f 345 333 252
f 312 322 346
f 347 261 244
f 314 266 326
f 348 248 256
f 349 269 262
f 319 27 289
f 278 335 273
f 307 242 296
f 177 180 39
f 215 213 216
f 321 332 345
f 308 19 23
f 283 127 285
f 350 245 246
f 288 340 292
f 18 25 22
f 351 264 241
f 290 341 297
f 352 275 353
f 310 344 320
f 37 33 34
f 200 197 199
f 354 345 252
f 355 95 325
f 250 132 136
f 302 108 115
f 356 293 259
f 316 349 262
f 357 307 313
f 280 342 268
f 338 308 318
f 254 1 331
f 255 344 310
f 285 250 249
f 97 90 94
f 180 177 179
f 358 310 320
f 257 119 123
f 260 355 261
f 359 283 334
f 360 314 287
f 268 47 269
f 271 319 272
f 326 79 80
f 277 254 335
f 103 107 301
f 28 24 175
f 330 290 279
f 324 321 354
f 346 359 334
f 284 103 301
f 197 196 198
f 287 326 336
f 328 351 305
f 289 31 32
f 155 1 253
f 294 11 12
f 16 15 169
f 193 196 71
f 247 302 309
f 303 84 304
f 306 241 307
f 281 280 267
f 353 338 343
f 35 28 177
f 24 20 173
f 214 211 106
f 33 29 30
f 33 37 178
f 201 200 202
f 40 39 181
f 117 113 114
f 283 285 334
f 123 119 120
f 61 65 62
f 173 170 174
f 92 88 206
f 72 71 197
f 209 206 210
f 256 322 312
f 29 22 26
f 107 103 104
f 41 37 38
f 67 60 64
f 13 6 10
f 234 236 235
f 21 17 18
f 121 117 118
f 139 143 140
f 99 92 209
f 60 67 242
f 41 42 182
f 78 85 82
f 128 135 132
f 57 50 54
f 19 12 16
f 77 70 74
f 89 82 86
f 351 306 305
f 335 274 273
f 141 134 138
f 27 23 24
f 190 189 58
f 131 127 128
f 83 76 201
f 75 68 72
f 122 129 224
f 81 77 78
f 29 33 176
f 159 148 152
f 155 159 156
f 20 16 170
f 157 154 158
f 166 167 15
f 48 44 184
f 4 6 164
f 65 69 66
f 211 210 105
f 17 13 14
f 184 183 186
f 87 83 203
f 203 201 204
f 127 123 124
f 267 349 316
f 111 104 215
f 101 97 98
f 171 172 170
f 130 137 134
f 79 75 76
f 58 62 192
f 59 55 56
f 147 151 148
f 204 207 205
f 49 42 46
f 186 189 187
f 55 51 52
f 4 157 5
f 133 129 130
f 104 100 213
f 103 96 100
f 115 108 112
f 119 115 116
f 96 103 284
f 213 212 214
f 63 56 191
f 206 205 208
f 193 191 194
f 196 193 195
f 161 163 7
f 44 40 183
f 321 345 354
f 107 108 302
f 64 63 193
f 207 204 90
f 177 175 178
f 162 164 163
f 38 45 42
f 181 180 182
f 166 163 165
f 199 198 81
f 221 224 223
f 226 229 227
f 179 178 41
f 149 150 236
f 194 192 66
f 5 9 6
f 250 255 251
f 47 43 44
f 2 7 3
f 83 87 84
f 51 47 48
f 23 19 20
f 149 142 146
f 31 27 28
f 113 106 110
f 171 168 21
f 13 17 168
f 88 87 205
f 304 355 260
f 1 155 2
f 43 36 40
f 344 282 320
f 56 52 188
f 216 214 113
f 197 200 76
f 218 215 217
f 54 61 58
f 116 112 219
f 219 218 220
f 220 217 121
f 84 91 304
f 222 219 221
f 221 220 122
f 124 120 223
f 123 127 283
f 134 141 230
f 128 124 225
f 76 83 80
f 355 325 261
f 135 128 227
f 275 338 353
f 229 226 134
f 139 135 228
f 228 227 230
f 102 109 106
f 143 139 231
f 231 228 232
f 232 230 142
f 287 340 288
f 209 212 100
f 143 147 144
f 151 147 235
f 80 84 303
f 49 50 186
f 12 19 308
f 240 235 237
f 237 236 154
f 2 156 161
f 161 238 162
f 162 239 4
f 156 152 238
f 238 240 239
f 239 237 157
f 64 71 68
f 350 243 245
f 348 246 248
f 81 82 202
f 277 252 254
f 344 255 140
f 322 256 258
f 347 259 261
f 351 262 264
f 322 359 346
f 349 267 269
f 329 270 272
f 352 273 275
f 277 335 278
f 332 282 148
f 129 133 226
f 282 332 321
f 250 285 132
f 21 22 172
f 284 301 245
f 86 93 90
f 356 291 293
f 275 274 295
f 68 75 266
f 276 298 277
f 47 51 269
f 22 29 174
f 293 292 304
f 357 305 307
f 342 297 43
f 113 117 217
f 257 309 119
f 56 63 60
f 6 13 165
f 360 313 314
f 355 304 95
f 215 218 112
f 28 35 32
f 271 317 319
f 319 318 27
f 184 187 52
f 359 322 283
f 319 289 272
f 92 99 96
f 297 342 280
f 332 333 345
f 244 261 284
f 269 263 262
f 294 331 11
f 263 269 55
f 333 253 252
f 338 317 343
f 274 335 294
f 247 245 302
f 127 131 285
f 35 39 36
f 241 242 307
f 66 70 195
f 299 339 249
f 253 333 155
f 358 300 310
f 292 340 303
f 256 248 257
f 104 111 108
f 265 242 68
f 297 341 36
f 268 342 47
f 270 343 271
f 282 344 144
f 320 321 324
f 235 240 152
f 243 347 244
f 287 314 326
f 311 348 256
f 70 77 198
f 75 79 326
f 118 125 122
f 262 351 328
f 27 31 289
f 318 308 23
f 245 247 246
f 182 185 183
f 291 288 292
f 306 351 241
f 279 290 297
f 293 260 259
f 8 15 12
f 298 354 252
f 55 59 264
f 255 250 136
f 309 302 115
f 146 153 150
f 327 316 262
f 148 159 333
f 267 280 268
f 317 338 318
f 1 3 331
f 323 358 320
f 258 257 123
f 249 251 300
f 231 233 147
f 286 360 287
f 153 160 154
f 295 308 338
f 336 326 80
f 254 331 335
f 337 330 279
f 135 139 136
f 339 346 334
f 95 96 325
f 340 287 336
f 59 60 241
f 341 289 32
f 253 1 254
f 295 294 12
f 248 247 309
f 272 290 330
f 219 222 120
f 315 281 267
f 190 192 191
f 232 234 233
