# Blender v2.67 (sub 0) OBJ File: ''
# www.blender.org
mtllib sphbot_wall.mtl
o Icosphere
v 0.000000 0.000000 -1.000000
v -0.723607 0.525725 -0.447220
v 0.276388 0.850649 -0.447220
v 0.894426 0.000000 -0.447216
v 0.276388 -0.850649 -0.447220
v -0.723607 -0.525725 -0.447220
v -0.096471 0.070089 -0.992865
v -0.203181 0.147618 -0.967950
v -0.315251 0.229040 -0.920955
v -0.425323 0.309011 -0.850654
v -0.525420 0.381735 -0.760403
v -0.609547 0.442856 -0.657519
v -0.675300 0.490628 -0.550685
v -0.638452 0.604038 -0.476987
v -0.531941 0.681712 -0.502302
v -0.405008 0.752338 -0.519572
v -0.262869 0.809012 -0.525738
v -0.114564 0.846711 -0.519572
v 0.029639 0.864184 -0.502302
v 0.161465 0.863951 -0.476988
v 0.257937 0.793860 -0.550685
v 0.232822 0.716563 -0.657519
v 0.200688 0.617666 -0.760403
v 0.162456 0.499995 -0.850654
v 0.120413 0.370598 -0.920955
v 0.077607 0.238853 -0.967950
v 0.036848 0.113408 -0.992865
v -0.096471 -0.070089 -0.992865
v -0.203181 -0.147618 -0.967950
v -0.315251 -0.229040 -0.920955
v -0.425323 -0.309011 -0.850654
v -0.525420 -0.381735 -0.760403
v -0.609547 -0.442856 -0.657519
v -0.675300 -0.490628 -0.550685
v -0.771771 -0.420539 -0.476987
v -0.812729 -0.295238 -0.502301
v -0.840673 -0.152694 -0.519571
v -0.850648 0.000000 -0.525736
v -0.840673 0.152694 -0.519571
v -0.812729 0.295238 -0.502301
v -0.771771 0.420539 -0.476987
v 0.377183 0.793861 -0.476988
v 0.483971 0.716565 -0.502302
v 0.590366 0.617668 -0.519572
v 0.688189 0.499997 -0.525736
v 0.769872 0.370600 -0.519570
v 0.831051 0.238853 -0.502299
v 0.871565 0.113408 -0.476984
v 0.834716 0.000000 -0.550681
v 0.753442 0.000000 -0.657515
v 0.649456 0.000000 -0.760399
v 0.525730 0.000000 -0.850652
v 0.389673 0.000000 -0.920953
v 0.251147 0.000000 -0.967949
v 0.119245 0.000000 -0.992865
v 0.871565 -0.113408 -0.476984
v 0.831051 -0.238853 -0.502299
v 0.769872 -0.370600 -0.519570
v 0.688189 -0.499997 -0.525736
v 0.590366 -0.617668 -0.519572
v 0.483971 -0.716565 -0.502302
v 0.377183 -0.793861 -0.476988
v 0.257937 -0.793860 -0.550685
v 0.232822 -0.716563 -0.657519
v 0.200688 -0.617666 -0.760403
v 0.162456 -0.499995 -0.850654
v 0.120413 -0.370598 -0.920955
v 0.077607 -0.238853 -0.967950
v 0.036848 -0.113408 -0.992865
v 0.161465 -0.863951 -0.476988
v 0.029639 -0.864184 -0.502302
v -0.114564 -0.846711 -0.519573
v -0.262869 -0.809012 -0.525738
v -0.405008 -0.752338 -0.519572
v -0.531941 -0.681712 -0.502302
v -0.638453 -0.604038 -0.476987
v -0.794547 -0.490629 -0.357741
v -0.860698 -0.442858 -0.251151
v -0.915098 -0.381737 -0.129893
v -0.951058 -0.309013 0.000000
v -0.951058 0.309013 -0.000000
v -0.915098 0.381737 -0.129893
v -0.860698 0.442858 -0.251151
v -0.794547 0.490629 -0.357741
v -0.712150 0.604039 -0.357741
v -0.687159 0.681715 -0.251152
v -0.645839 0.752343 -0.129894
v -0.587786 0.809017 0.000000
v 0.000000 1.000000 -0.000000
v 0.080276 0.988273 -0.129894
v 0.155215 0.955422 -0.251152
v 0.221089 0.907271 -0.357741
v 0.354409 0.863953 -0.357742
v 0.436007 0.864188 -0.251152
v 0.515946 0.846716 -0.129894
v 0.587786 0.809017 0.000000
v 0.951058 0.309013 -0.000000
v 0.964711 0.229041 -0.129893
v 0.956626 0.147618 -0.251149
v 0.931188 0.070089 -0.357738
v 0.931188 -0.070089 -0.357738
v 0.956626 -0.147618 -0.251149
v 0.964711 -0.229041 -0.129893
v 0.951058 -0.309013 0.000000
v 0.587786 -0.809017 -0.000000
v 0.515946 -0.846716 -0.129894
v 0.436007 -0.864188 -0.251152
v 0.354409 -0.863953 -0.357742
v 0.221089 -0.907271 -0.357741
v 0.155215 -0.955422 -0.251152
v 0.080276 -0.988273 -0.129894
v -0.000000 -1.000000 0.000000
v -0.587786 -0.809017 -0.000000
v -0.645839 -0.752342 -0.129894
v -0.687159 -0.681715 -0.251152
v -0.712150 -0.604039 -0.357741
v 0.132684 0.799129 -0.586334
v 0.097915 0.710785 -0.696561
v -0.009709 0.788978 -0.614344
v 0.058249 0.599101 -0.798552
v -0.052790 0.688185 -0.723612
v -0.162463 0.759458 -0.629944
v 0.016097 0.469370 -0.882855
v -0.096780 0.564249 -0.819913
v -0.210089 0.646572 -0.733354
v -0.314971 0.709905 -0.629943
v -0.025409 0.331228 -0.943209
v -0.138199 0.425321 -0.894429
v -0.253368 0.513370 -0.819912
v -0.361805 0.587779 -0.723611
v -0.455903 0.643999 -0.614344
v -0.063484 0.195377 -0.978671
v -0.174140 0.282902 -0.943208
v -0.288918 0.370264 -0.882854
v -0.399274 0.450441 -0.798550
v -0.497011 0.517480 -0.696560
v -0.577067 0.568513 -0.586333
v -0.719015 -0.373135 -0.586334
v -0.753363 -0.234576 -0.614343
v -0.645740 -0.312768 -0.696560
v -0.772493 -0.080177 -0.629942
v -0.670817 -0.162457 -0.723611
v -0.551780 -0.240532 -0.798551
v -0.772493 0.080178 -0.629942
v -0.679849 0.000000 -0.733353
v -0.566540 -0.082322 -0.819912
v -0.441423 -0.160354 -0.882854
v -0.753364 0.234576 -0.614343
v -0.670818 0.162458 -0.723610
v -0.566541 0.082323 -0.819911
v -0.447211 0.000001 -0.894428
v -0.322869 -0.078191 -0.943208
v -0.719016 0.373136 -0.586333
v -0.645741 0.312769 -0.696559
v -0.551781 0.240533 -0.798550
v -0.441424 0.160356 -0.882854
v -0.322870 0.078193 -0.943208
v -0.205432 0.000001 -0.978671
v 0.801022 0.120750 -0.586330
v 0.706258 0.126518 -0.696558
v 0.747367 0.253037 -0.614341
v 0.587784 0.129731 -0.798549
v 0.638195 0.262864 -0.723609
v 0.672088 0.389193 -0.629941
v 0.451375 0.129731 -0.882853
v 0.506730 0.266403 -0.819911
v 0.550009 0.399605 -0.733352
v 0.577832 0.518925 -0.629942
v 0.307168 0.126519 -0.943208
v 0.361801 0.262864 -0.894428
v 0.409952 0.399605 -0.819912
v 0.447211 0.525729 -0.723610
v 0.471601 0.632594 -0.614343
v 0.166198 0.120750 -0.978671
v 0.215246 0.253038 -0.943208
v 0.262863 0.389194 -0.882854
v 0.305015 0.518925 -0.798550
v 0.338569 0.632594 -0.696560
v 0.362367 0.724502 -0.586333
v 0.362367 -0.724501 -0.586334
v 0.338569 -0.632593 -0.696561
v 0.471601 -0.632593 -0.614344
v 0.305014 -0.518923 -0.798552
v 0.447211 -0.525727 -0.723612
v 0.577832 -0.518924 -0.629943
v 0.262862 -0.389192 -0.882855
v 0.409952 -0.399603 -0.819913
v 0.550010 -0.399603 -0.733353
v 0.672088 -0.389192 -0.629942
v 0.215245 -0.253036 -0.943209
v 0.361801 -0.262863 -0.894429
v 0.506730 -0.266402 -0.819912
v 0.638195 -0.262863 -0.723609
v 0.747367 -0.253036 -0.614341
v 0.166198 -0.120749 -0.978671
v 0.307168 -0.126518 -0.943208
v 0.451376 -0.129730 -0.882853
v 0.587784 -0.129730 -0.798549
v 0.706258 -0.126518 -0.696557
v 0.801022 -0.120749 -0.586330
v -0.577066 -0.568513 -0.586334
v -0.497009 -0.517479 -0.696561
v -0.455902 -0.643999 -0.614344
v -0.399272 -0.450441 -0.798552
v -0.361804 -0.587779 -0.723612
v -0.314971 -0.709905 -0.629943
v -0.288916 -0.370263 -0.882855
v -0.253366 -0.513370 -0.819913
v -0.210087 -0.646572 -0.733354
v -0.162463 -0.759459 -0.629943
v -0.174138 -0.282902 -0.943209
v -0.138197 -0.425321 -0.894429
v -0.096779 -0.564250 -0.819912
v -0.052789 -0.688186 -0.723611
v -0.009708 -0.788979 -0.614344
v -0.063482 -0.195377 -0.978671
v -0.025407 -0.331229 -0.943208
v 0.016099 -0.469371 -0.882854
v 0.058250 -0.599103 -0.798550
v 0.097915 -0.710786 -0.696560
v 0.132684 -0.799129 -0.586334
v -0.987059 0.160355 -0.000000
v -1.000000 0.000000 0.000000
v -0.987059 -0.160355 0.000000
v -0.961008 0.240533 -0.136410
v -0.986715 0.082322 -0.140059
v -0.986715 -0.082322 -0.140059
v -0.961008 -0.240533 -0.136410
v -0.911804 0.312769 -0.266064
v -0.947213 0.162458 -0.276396
v -0.959966 0.000000 -0.280117
v -0.947213 -0.162458 -0.276396
v -0.911804 -0.312769 -0.266064
v -0.845982 0.373136 -0.380899
v -0.886396 0.234576 -0.399095
v -0.908902 0.080178 -0.409229
v -0.908902 -0.080178 -0.409229
v -0.886396 -0.234576 -0.399095
v -0.845982 -0.373136 -0.380899
v -0.152509 0.988302 -0.000000
v -0.309017 0.951056 0.000000
v -0.457527 0.889196 0.000000
v -0.068206 0.988302 -0.136410
v -0.226619 0.963861 -0.140060
v -0.383207 0.912982 -0.140060
v -0.525732 0.839641 -0.136411
v 0.015699 0.963827 -0.266065
v -0.138199 0.951055 -0.276397
v -0.296648 0.912980 -0.280119
v -0.447216 0.850648 -0.276398
v -0.579229 0.770521 -0.266065
v 0.093451 0.919882 -0.380900
v -0.050817 0.915500 -0.399097
v -0.204615 0.889192 -0.409230
v -0.357124 0.839639 -0.409230
v -0.497012 0.770520 -0.399097
v -0.616302 0.689266 -0.380900
v 0.892805 0.450444 -0.000000
v 0.809018 0.587783 0.000000
v 0.704293 0.709910 0.000000
v 0.918856 0.370265 -0.136410
v 0.846659 0.513374 -0.140059
v 0.749881 0.646577 -0.140059
v 0.636087 0.759464 -0.136411
v 0.921508 0.282904 -0.266063
v 0.861803 0.425324 -0.276396
v 0.776629 0.564253 -0.280118
v 0.670819 0.688191 -0.276397
v 0.553819 0.788983 -0.266065
v 0.903739 0.195378 -0.380897
v 0.854991 0.331231 -0.399094
v 0.782445 0.469374 -0.409229
v 0.688189 0.599106 -0.409230
v 0.579224 0.710789 -0.399096
v 0.465084 0.799132 -0.380900
v 0.704293 -0.709910 -0.000000
v 0.809018 -0.587783 -0.000000
v 0.892805 -0.450444 0.000000
v 0.636087 -0.759464 -0.136411
v 0.749881 -0.646577 -0.140059
v 0.846659 -0.513374 -0.140059
v 0.918856 -0.370265 -0.136410
v 0.553819 -0.788983 -0.266065
v 0.670819 -0.688191 -0.276397
v 0.776628 -0.564253 -0.280118
v 0.861803 -0.425324 -0.276396
v 0.921507 -0.282904 -0.266063
v 0.465084 -0.799132 -0.380900
v 0.579224 -0.710789 -0.399096
v 0.688189 -0.599106 -0.409230
v 0.782445 -0.469374 -0.409229
v 0.854991 -0.331231 -0.399094
v 0.903739 -0.195378 -0.380897
v -0.457527 -0.889196 -0.000000
v -0.309017 -0.951056 -0.000000
v -0.152509 -0.988302 0.000000
v -0.525732 -0.839641 -0.136411
v -0.383207 -0.912982 -0.140060
v -0.226619 -0.963861 -0.140060
v -0.068205 -0.988302 -0.136410
v -0.579229 -0.770521 -0.266065
v -0.447216 -0.850648 -0.276398
v -0.296648 -0.912980 -0.280119
v -0.138199 -0.951055 -0.276398
v 0.015699 -0.963827 -0.266065
v -0.616302 -0.689265 -0.380900
v -0.497012 -0.770520 -0.399097
v -0.357124 -0.839639 -0.409231
v -0.204615 -0.889192 -0.409231
v -0.050817 -0.915500 -0.399097
v 0.093451 -0.919881 -0.380900
v -0.704293 0.709909 -0.000001
v -0.753368 0.644002 -0.133034
v -0.809019 0.587783 -0.000002
v -0.782501 0.568515 -0.253934
v -0.845289 0.517482 -0.133034
v -0.892805 0.450444 -0.000002
v 0.457527 0.889196 -0.000001
v 0.379681 0.915502 -0.133033
v 0.309017 0.951056 -0.000001
v 0.298885 0.919883 -0.253934
v 0.230948 0.963828 -0.133033
v 0.152509 0.988302 -0.000000
v 0.987059 -0.160355 0.000000
v 0.988023 -0.078192 -0.133031
v 1.000000 0.000000 0.000001
v 0.967222 0.000000 -0.253931
v 0.988023 0.078193 -0.133030
v 0.987059 0.160356 0.000001
v 0.152509 -0.988302 -0.000000
v 0.230948 -0.963829 -0.133033
v 0.309016 -0.951057 -0.000000
v 0.298885 -0.919883 -0.253934
v 0.379680 -0.915503 -0.133033
v 0.457527 -0.889196 -0.000000
v -0.892805 -0.450443 -0.000000
v -0.845290 -0.517481 -0.133032
v -0.809019 -0.587782 0.000000
v -0.782501 -0.568515 -0.253933
v -0.753368 -0.644002 -0.133032
v -0.704293 -0.709909 0.000000
usemtl None
s off
f 1 7 27
f 2 13 41
f 1 27 55
f 1 55 69
f 1 69 28
f 2 41 84
f 3 20 92
f 4 48 100
f 5 62 108
f 6 76 116
f 2 84 85
f 3 92 93
f 4 100 101
f 5 108 109
f 6 116 77
f 21 20 3
f 22 117 21
f 23 118 22
f 24 120 23
f 25 123 24
f 26 127 25
f 27 132 26
f 21 117 20
f 117 19 20
f 22 118 117
f 118 119 117
f 117 119 19
f 119 18 19
f 23 120 118
f 120 121 118
f 118 121 119
f 121 122 119
f 119 122 18
f 122 17 18
f 24 123 120
f 123 124 120
f 120 124 121
f 124 125 121
f 121 125 122
f 125 126 122
f 122 126 17
f 126 16 17
f 25 127 123
f 127 128 123
f 123 128 124
f 128 129 124
f 124 129 125
f 129 130 125
f 125 130 126
f 130 131 126
f 126 131 16
f 131 15 16
f 26 132 127
f 132 133 127
f 127 133 128
f 133 134 128
f 128 134 129
f 134 135 129
f 129 135 130
f 135 136 130
f 130 136 131
f 136 137 131
f 131 137 15
f 137 14 15
f 27 7 132
f 7 8 132
f 132 8 133
f 8 9 133
f 133 9 134
f 9 10 134
f 134 10 135
f 10 11 135
f 135 11 136
f 11 12 136
f 136 12 137
f 12 13 137
f 137 13 14
f 13 2 14
f 35 34 6
f 36 138 35
f 37 139 36
f 38 141 37
f 39 144 38
f 40 148 39
f 41 153 40
f 35 138 34
f 138 33 34
f 36 139 138
f 139 140 138
f 138 140 33
f 140 32 33
f 37 141 139
f 141 142 139
f 139 142 140
f 142 143 140
f 140 143 32
f 143 31 32
f 38 144 141
f 144 145 141
f 141 145 142
f 145 146 142
f 142 146 143
f 146 147 143
f 143 147 31
f 147 30 31
f 39 148 144
f 148 149 144
f 144 149 145
f 149 150 145
f 145 150 146
f 150 151 146
f 146 151 147
f 151 152 147
f 147 152 30
f 152 29 30
f 40 153 148
f 153 154 148
f 148 154 149
f 154 155 149
f 149 155 150
f 155 156 150
f 150 156 151
f 156 157 151
f 151 157 152
f 157 158 152
f 152 158 29
f 158 28 29
f 41 13 153
f 13 12 153
f 153 12 154
f 12 11 154
f 154 11 155
f 11 10 155
f 155 10 156
f 10 9 156
f 156 9 157
f 9 8 157
f 157 8 158
f 8 7 158
f 158 7 28
f 7 1 28
f 49 48 4
f 50 159 49
f 51 160 50
f 52 162 51
f 53 165 52
f 54 169 53
f 55 174 54
f 49 159 48
f 159 47 48
f 50 160 159
f 160 161 159
f 159 161 47
f 161 46 47
f 51 162 160
f 162 163 160
f 160 163 161
f 163 164 161
f 161 164 46
f 164 45 46
f 52 165 162
f 165 166 162
f 162 166 163
f 166 167 163
f 163 167 164
f 167 168 164
f 164 168 45
f 168 44 45
f 53 169 165
f 169 170 165
f 165 170 166
f 170 171 166
f 166 171 167
f 171 172 167
f 167 172 168
f 172 173 168
f 168 173 44
f 173 43 44
f 54 174 169
f 174 175 169
f 169 175 170
f 175 176 170
f 170 176 171
f 176 177 171
f 171 177 172
f 177 178 172
f 172 178 173
f 178 179 173
f 173 179 43
f 179 42 43
f 55 27 174
f 27 26 174
f 174 26 175
f 26 25 175
f 175 25 176
f 25 24 176
f 176 24 177
f 24 23 177
f 177 23 178
f 23 22 178
f 178 22 179
f 22 21 179
f 179 21 42
f 21 3 42
f 63 62 5
f 64 180 63
f 65 181 64
f 66 183 65
f 67 186 66
f 68 190 67
f 69 195 68
f 63 180 62
f 180 61 62
f 64 181 180
f 181 182 180
f 180 182 61
f 182 60 61
f 65 183 181
f 183 184 181
f 181 184 182
f 184 185 182
f 182 185 60
f 185 59 60
f 66 186 183
f 186 187 183
f 183 187 184
f 187 188 184
f 184 188 185
f 188 189 185
f 185 189 59
f 189 58 59
f 67 190 186
f 190 191 186
f 186 191 187
f 191 192 187
f 187 192 188
f 192 193 188
f 188 193 189
f 193 194 189
f 189 194 58
f 194 57 58
f 68 195 190
f 195 196 190
f 190 196 191
f 196 197 191
f 191 197 192
f 197 198 192
f 192 198 193
f 198 199 193
f 193 199 194
f 199 200 194
f 194 200 57
f 200 56 57
f 69 55 195
f 55 54 195
f 195 54 196
f 54 53 196
f 196 53 197
f 53 52 197
f 197 52 198
f 52 51 198
f 198 51 199
f 51 50 199
f 199 50 200
f 50 49 200
f 200 49 56
f 49 4 56
f 34 76 6
f 33 201 34
f 32 202 33
f 31 204 32
f 30 207 31
f 29 211 30
f 28 216 29
f 34 201 76
f 201 75 76
f 33 202 201
f 202 203 201
f 201 203 75
f 203 74 75
f 32 204 202
f 204 205 202
f 202 205 203
f 205 206 203
f 203 206 74
f 206 73 74
f 31 207 204
f 207 208 204
f 204 208 205
f 208 209 205
f 205 209 206
f 209 210 206
f 206 210 73
f 210 72 73
f 30 211 207
f 211 212 207
f 207 212 208
f 212 213 208
f 208 213 209
f 213 214 209
f 209 214 210
f 214 215 210
f 210 215 72
f 215 71 72
f 29 216 211
f 216 217 211
f 211 217 212
f 217 218 212
f 212 218 213
f 218 219 213
f 213 219 214
f 219 220 214
f 214 220 215
f 220 221 215
f 215 221 71
f 221 70 71
f 28 69 216
f 69 68 216
f 216 68 217
f 68 67 217
f 217 67 218
f 67 66 218
f 218 66 219
f 66 65 219
f 219 65 220
f 65 64 220
f 220 64 221
f 64 63 221
f 221 63 70
f 63 5 70
f 82 225 81
f 83 229 82
f 84 234 83
f 81 225 222
f 225 226 222
f 222 226 223
f 226 227 223
f 223 227 224
f 227 228 224
f 224 228 80
f 228 79 80
f 82 229 225
f 229 230 225
f 225 230 226
f 230 231 226
f 226 231 227
f 231 232 227
f 227 232 228
f 232 233 228
f 228 233 79
f 233 78 79
f 83 234 229
f 234 235 229
f 229 235 230
f 235 236 230
f 230 236 231
f 236 237 231
f 231 237 232
f 237 238 232
f 232 238 233
f 238 239 233
f 233 239 78
f 239 77 78
f 84 41 234
f 41 40 234
f 234 40 235
f 40 39 235
f 235 39 236
f 39 38 236
f 236 38 237
f 38 37 237
f 237 37 238
f 37 36 238
f 238 36 239
f 36 35 239
f 239 35 77
f 35 6 77
f 90 243 89
f 91 247 90
f 92 252 91
f 89 243 240
f 243 244 240
f 240 244 241
f 244 245 241
f 241 245 242
f 245 246 242
f 242 246 88
f 246 87 88
f 90 247 243
f 247 248 243
f 243 248 244
f 248 249 244
f 244 249 245
f 249 250 245
f 245 250 246
f 250 251 246
f 246 251 87
f 251 86 87
f 91 252 247
f 252 253 247
f 247 253 248
f 253 254 248
f 248 254 249
f 254 255 249
f 249 255 250
f 255 256 250
f 250 256 251
f 256 257 251
f 251 257 86
f 257 85 86
f 92 20 252
f 20 19 252
f 252 19 253
f 19 18 253
f 253 18 254
f 18 17 254
f 254 17 255
f 17 16 255
f 255 16 256
f 16 15 256
f 256 15 257
f 15 14 257
f 257 14 85
f 14 2 85
f 98 261 97
f 99 265 98
f 100 270 99
f 97 261 258
f 261 262 258
f 258 262 259
f 262 263 259
f 259 263 260
f 263 264 260
f 260 264 96
f 264 95 96
f 98 265 261
f 265 266 261
f 261 266 262
f 266 267 262
f 262 267 263
f 267 268 263
f 263 268 264
f 268 269 264
f 264 269 95
f 269 94 95
f 99 270 265
f 270 271 265
f 265 271 266
f 271 272 266
f 266 272 267
f 272 273 267
f 267 273 268
f 273 274 268
f 268 274 269
f 274 275 269
f 269 275 94
f 275 93 94
f 100 48 270
f 48 47 270
f 270 47 271
f 47 46 271
f 271 46 272
f 46 45 272
f 272 45 273
f 45 44 273
f 273 44 274
f 44 43 274
f 274 43 275
f 43 42 275
f 275 42 93
f 42 3 93
f 106 279 105
f 107 283 106
f 108 288 107
f 105 279 276
f 279 280 276
f 276 280 277
f 280 281 277
f 277 281 278
f 281 282 278
f 278 282 104
f 282 103 104
f 106 283 279
f 283 284 279
f 279 284 280
f 284 285 280
f 280 285 281
f 285 286 281
f 281 286 282
f 286 287 282
f 282 287 103
f 287 102 103
f 107 288 283
f 288 289 283
f 283 289 284
f 289 290 284
f 284 290 285
f 290 291 285
f 285 291 286
f 291 292 286
f 286 292 287
f 292 293 287
f 287 293 102
f 293 101 102
f 108 62 288
f 62 61 288
f 288 61 289
f 61 60 289
f 289 60 290
f 60 59 290
f 290 59 291
f 59 58 291
f 291 58 292
f 58 57 292
f 292 57 293
f 57 56 293
f 293 56 101
f 56 4 101
f 114 297 113
f 115 301 114
f 116 306 115
f 113 297 294
f 297 298 294
f 294 298 295
f 298 299 295
f 295 299 296
f 299 300 296
f 296 300 112
f 300 111 112
f 114 301 297
f 301 302 297
f 297 302 298
f 302 303 298
f 298 303 299
f 303 304 299
f 299 304 300
f 304 305 300
f 300 305 111
f 305 110 111
f 115 306 301
f 306 307 301
f 301 307 302
f 307 308 302
f 302 308 303
f 308 309 303
f 303 309 304
f 309 310 304
f 304 310 305
f 310 311 305
f 305 311 110
f 311 109 110
f 116 76 306
f 76 75 306
f 306 75 307
f 75 74 307
f 307 74 308
f 74 73 308
f 308 73 309
f 73 72 309
f 309 72 310
f 72 71 310
f 310 71 311
f 71 70 311
f 311 70 109
f 70 5 109
f 87 312 88
f 86 313 87
f 85 315 86
f 87 313 312
f 313 314 312
f 86 315 313
f 315 316 313
f 313 316 314
f 316 317 314
f 85 84 315
f 84 83 315
f 315 83 316
f 83 82 316
f 316 82 317
f 82 81 317
f 95 318 96
f 94 319 95
f 93 321 94
f 95 319 318
f 319 320 318
f 94 321 319
f 321 322 319
f 319 322 320
f 322 323 320
f 93 92 321
f 92 91 321
f 321 91 322
f 91 90 322
f 322 90 323
f 90 89 323
f 103 324 104
f 102 325 103
f 101 327 102
f 103 325 324
f 325 326 324
f 102 327 325
f 327 328 325
f 325 328 326
f 328 329 326
f 101 100 327
f 100 99 327
f 327 99 328
f 99 98 328
f 328 98 329
f 98 97 329
f 111 330 112
f 110 331 111
f 109 333 110
f 111 331 330
f 331 332 330
f 110 333 331
f 333 334 331
f 331 334 332
f 334 335 332
f 109 108 333
f 108 107 333
f 333 107 334
f 107 106 334
f 334 106 335
f 106 105 335
f 79 336 80
f 78 337 79
f 77 339 78
f 79 337 336
f 337 338 336
f 78 339 337
f 339 340 337
f 337 340 338
f 340 341 338
f 77 116 339
f 116 115 339
f 339 115 340
f 115 114 340
f 340 114 341
f 114 113 341
